%YAML 1.1
%TAG !u! tag:unity3d.com,2011:
--- !u!114 &11400000
MonoBehaviour:
  m_ObjectHideFlags: 0
  m_CorrespondingSourceObject: {fileID: 0}
  m_PrefabInstance: {fileID: 0}
  m_PrefabAsset: {fileID: 0}
  m_GameObject: {fileID: 0}
  m_Enabled: 1
  m_EditorHideFlags: 0
  m_Script: {fileID: 11500000, guid: 2a58f509178ad4609b8b3bfb68e97ff1, type: 3}
  m_Name: WormrootSeed(seed)
  m_EditorClassIdentifier: 
  name: Wormroot Seed
  buyPrice: 5
  description: plant this seed to grow wormroot
  itemCat: {fileID: 11400000, guid: 5e16923ac2d7e4da0b4cba437679c331, type: 2}
