%YAML 1.1
%TAG !u! tag:unity3d.com,2011:
--- !u!114 &11400000
MonoBehaviour:
  m_ObjectHideFlags: 0
  m_CorrespondingSourceObject: {fileID: 0}
  m_PrefabInstance: {fileID: 0}
  m_PrefabAsset: {fileID: 0}
  m_GameObject: {fileID: 0}
  m_Enabled: 1
  m_EditorHideFlags: 0
  m_Script: {fileID: 11500000, guid: c140537b342d9e647bc7a7a5d7099db4, type: 3}
  m_Name: PotionOfNightVision
  m_EditorClassIdentifier: 
  name: Potion of Night Vision
  sellPrice: 50
  itemType: 20
  itemCat: {fileID: 11400000, guid: 3a0ce5913d74642a5b45778e4d8ded8c, type: 2}
  ingred:
  - Water
  - Moonleaf
