%YAML 1.1
%TAG !u! tag:unity3d.com,2011:
--- !u!114 &11400000
MonoBehaviour:
  m_ObjectHideFlags: 0
  m_CorrespondingSourceObject: {fileID: 0}
  m_PrefabInstance: {fileID: 0}
  m_PrefabAsset: {fileID: 0}
  m_GameObject: {fileID: 0}
  m_Enabled: 1
  m_EditorHideFlags: 0
  m_Script: {fileID: 11500000, guid: e839008b31656b144ac4da9faf97d358, type: 3}
  m_Name: Black Opal
  m_EditorClassIdentifier: 
  name: Black Opal
  sellPrice: 0
  itemType: 13
  itemCat: {fileID: 11400000, guid: 9ecac0459303c2d4fb94792a1d6b1d38, type: 2}
  useText: 'Use: Something'
