%YAML 1.1
%TAG !u! tag:unity3d.com,2011:
--- !u!114 &11400000
MonoBehaviour:
  m_ObjectHideFlags: 0
  m_CorrespondingSourceObject: {fileID: 0}
  m_PrefabInstance: {fileID: 0}
  m_PrefabAsset: {fileID: 0}
  m_GameObject: {fileID: 0}
  m_Enabled: 1
  m_EditorHideFlags: 0
  m_Script: {fileID: 11500000, guid: e839008b31656b144ac4da9faf97d358, type: 3}
  m_Name: Wool
  m_EditorClassIdentifier: 
  name: Wool
  sellPrice: 0
  itemType: 7
  itemCat: {fileID: 11400000, guid: 0a1951249fd823f42ba3e471853368f9, type: 2}
  useText: 'Use: Something'
