%YAML 1.1
%TAG !u! tag:unity3d.com,2011:
--- !u!114 &11400000
MonoBehaviour:
  m_ObjectHideFlags: 0
  m_CorrespondingSourceObject: {fileID: 0}
  m_PrefabInstance: {fileID: 0}
  m_PrefabAsset: {fileID: 0}
  m_GameObject: {fileID: 0}
  m_Enabled: 1
  m_EditorHideFlags: 0
  m_Script: {fileID: 11500000, guid: e839008b31656b144ac4da9faf97d358, type: 3}
  m_Name: Wormroot
  m_EditorClassIdentifier: 
  name: Wormroot
  sellPrice: 0
  itemType: 3
  itemCat: {fileID: 11400000, guid: dcb962425392e6043a958624226e8abe, type: 2}
  useText: Ingredient used to craft
