%YAML 1.1
%TAG !u! tag:unity3d.com,2011:
--- !u!162 &1
EditorUserSettings:
  m_ObjectHideFlags: 0
  serializedVersion: 4
  m_ConfigSettings:
    RecentlyUsedScenePath-0:
      value: 22424703114646773a3d42371e2a4b09
      flags: 0
    RecentlyUsedScenePath-1:
      value: 22424703114646680e0b0227036c72111f19563f22213229
      flags: 0
    RecentlyUsedScenePath-2:
      value: 22424703114646680e0b0227036c7c111f0314232266333e243d04
      flags: 0
    RecentlyUsedScenePath-3:
      value: 22424703114646680e0b0227036c72110203587b623d28393930
      flags: 0
    RecentlyUsedScenePath-4:
      value: 22424703114646680e0b0227036c72191d12587b623d28393930
      flags: 0
    RecentlyUsedScenePath-5:
      value: 22424703114646680e0b0227036c72191d12563f22213229
      flags: 0
    RecentlyUsedScenePath-6:
      value: 22424703114646680e0b0227036c72191d12581e293b32353f67083debf42d
      flags: 0
    RecentlyUsedScenePath-7:
      value: 22424703114646680e0b0227036c72191d12586239382231392c197aacf53a31f6fe
      flags: 0
    RecentlyUsedScenePath-8:
      value: 22424703114646680e0b0227036c72110203563f22213229
      flags: 0
    RecentlyUsedScenePath-9:
      value: 22424703114646680e0b0227036c732725590d24253c3f
      flags: 0
    vcSharedLogLevel:
      value: 0d5e400f0650
      flags: 0
  m_VCAutomaticAdd: 1
  m_VCDebugCom: 0
  m_VCDebugCmd: 0
  m_VCDebugOut: 0
  m_SemanticMergeMode: 2
  m_VCShowFailedCheckout: 1
  m_VCOverwriteFailedCheckoutAssets: 1
  m_VCProjectOverlayIcons: 1
  m_VCHierarchyOverlayIcons: 1
  m_VCOtherOverlayIcons: 1
  m_VCAllowAsyncUpdate: 1
