%YAML 1.1
%TAG !u! tag:unity3d.com,2011:
--- !u!114 &11400000
MonoBehaviour:
  m_ObjectHideFlags: 0
  m_CorrespondingSourceObject: {fileID: 0}
  m_PrefabInstance: {fileID: 0}
  m_PrefabAsset: {fileID: 0}
  m_GameObject: {fileID: 0}
  m_Enabled: 1
  m_EditorHideFlags: 0
  m_Script: {fileID: 11500000, guid: ebaaa2a2daa9dd646b754a498304c46d, type: 3}
  m_Name: Order 1
  m_EditorClassIdentifier: 
  name: Mike's Order
  orderLength: 1
  reward: 40
  products:
  - {fileID: 11400000, guid: 28fc1a0de756d4f2e8c99b5bc984bff1, type: 2}
  - {fileID: 11400000, guid: f57e02926c64e9c49879b8fd63e0ff94, type: 2}
  itemCat: {fileID: 11400000, guid: 11034dfbcd392455e9f9e221361ea2f3, type: 2}
